<?xml version="1.0" standalone="no"?>
<!DOCTYPE svg PUBLIC "-//W3C//DTD SVG 1.1//EN" "http://www.w3.org/Graphics/SVG/1.1/DTD/svg11.dtd" >
<svg xmlns="http://www.w3.org/2000/svg">
<metadata>
This is a custom SVG webfont generated by Font Squirrel.
Foundry     : ALS
</metadata>
<defs>
<font id="webfontUrIfwAGe" horiz-adv-x="500" >
<font-face units-per-em="1000" ascent="750" descent="-250" />
<missing-glyph horiz-adv-x="500" />
<glyph unicode=" " />
<glyph unicode="&#xa0;" />
<glyph unicode="&#x420;" horiz-adv-x="856" d="M158 366h75v334h266q69 0 105 -6q52 -9 87 -33t55.5 -67t20.5 -95q0 -90 -56 -152.5t-204 -62.5h-182v-62h387v-80h-387v-142h-92v142h-75v80h75v62h-75v82zM325 368h183q89 0 127 33.5t38 94.5q0 44 -22.5 74.5t-58.5 40.5q-24 7 -86 7h-181v-250z" />
<glyph unicode="&#x440;" horiz-adv-x="856" d="M158 366h75v334h266q69 0 105 -6q52 -9 87 -33t55.5 -67t20.5 -95q0 -90 -56 -152.5t-204 -62.5h-182v-62h387v-80h-387v-142h-92v142h-75v80h75v62h-75v82zM325 368h183q89 0 127 33.5t38 94.5q0 44 -22.5 74.5t-58.5 40.5q-24 7 -86 7h-181v-250z" />
<glyph unicode="&#x2000;" horiz-adv-x="350" />
<glyph unicode="&#x2001;" horiz-adv-x="700" />
<glyph unicode="&#x2002;" horiz-adv-x="350" />
<glyph unicode="&#x2003;" horiz-adv-x="700" />
<glyph unicode="&#x2004;" horiz-adv-x="233" />
<glyph unicode="&#x2005;" horiz-adv-x="175" />
<glyph unicode="&#x2006;" horiz-adv-x="116" />
<glyph unicode="&#x2007;" horiz-adv-x="116" />
<glyph unicode="&#x2008;" horiz-adv-x="87" />
<glyph unicode="&#x2009;" horiz-adv-x="140" />
<glyph unicode="&#x200a;" horiz-adv-x="38" />
<glyph unicode="&#x202f;" horiz-adv-x="140" />
<glyph unicode="&#x205f;" horiz-adv-x="175" />
</font>
</defs></svg> 